{
  "kind": "collectionType",
  "collectionName": "question",
  "info": {
    "name": "Question",
    "description": ""
  },
  "options": {
    "increments": true,
    "timestamps": true,
    "draftAndPublish": true
  },
  "pluginOptions": {},
  "attributes": {
    "text": {
      "type": "richtext",
      "unique": false,
      "required": true
    },
    "answer1": {
      "type": "richtext"
    },
    "answer2": {
      "type": "richtext"
    },
    "answer3": {
      "type": "richtext"
    },
    "answer4": {
      "type": "richtext"
    },
    "answer5": {
      "type": "richtext",
      "required": false
    },
    "answer6": {
      "type": "richtext"
    },
    "correctAnswer": {
      "type": "enumeration",
      "enum": [
        "answer1",
        "answer2",
        "answer3",
        "answer4",
        "answer5",
        "answer6"
      ],
      "required": true,
      "unique": false
    },
    "image": {
      "model": "file",
      "via": "related",
      "allowedTypes": [
        "images",
        "videos"
      ],
      "plugin": "upload",
      "required": false,
      "pluginOptions": {}
    }
  }
}
